{
  "development": {
    "username": "postgres",
    "password": "enterhere",
    "database": "isomorph",
    "host": "localhost",
    "dialect": "postgres"
  },
  "test": {
    "username": "postgres",
    "password": "enterhere",
    "database": "isomorph",
    "host": "127.0.0.1",
    "dialect": "postgres"
  },
  "production": {
    "username": "postgres",
    "password": "enterhere",
    "database": "isomorph",
    "host": "localhost",
    "dialect": "postgres"
  }
}